// Jest Snapshot v1, https://goo.gl/fbAQLP

exports[`blog view screen component should renders correctly 1`] = `
<View
  style={
    Array [
      Object {
        "flex": 1,
      },
      Object {
        "backgroundColor": "#1A2025",
      },
    ]
  }
>
  <RCTScrollView
    stickyHeaderIndices={
      Array [
        1,
      ]
    }
  >
    <View>
      <View
        style={
          Object {
            "height": 200,
          }
        }
      >
        <View
          style={
            Array [
              Object {
                "overflow": "hidden",
              },
              Object {
                "height": 200,
              },
            ]
          }
        >
          <FastImageView
            onFastImageError={[Function]}
            onFastImageLoadEnd={[Function]}
            onFastImageProgress={[Function]}
            resizeMode="cover"
            retry={2}
            source={
              Object {
                "headers": Object {
                  "App-Version": "3.8.0",
                  "Cache-Control": "no-cache, no-store, must-revalidate",
                  "Content-Type": "application/json",
                  "Pragma": "no-cache",
                },
                "uri": "https://www.minds.com/fs/v1/banners/836607056186159104/1524838665",
              }
            }
            style={
              Object {
                "bottom": 0,
                "left": 0,
                "position": "absolute",
                "right": 0,
                "top": 0,
              }
            }
          />
        </View>
      </View>
      <Text
        style={
          Array [
            Object {
              "color": "#FFFFFF",
            },
            Object {
              "fontFamily": "Roboto",
            },
            Object {
              "fontFamily": "Roboto-Black",
              "fontSize": 22,
              "paddingBottom": 8,
              "paddingLeft": 15,
              "paddingRight": 15,
              "paddingTop": 12,
            },
          ]
        }
      >
        Some Title
      </Text>
      <RCTSafeAreaView
        emulateUnlessSupported={true}
        style={
          Object {
            "left": 0,
            "position": "absolute",
            "top": 0,
            "width": "100%",
          }
        }
      >
        <View
          style={
            Object {
              "borderRadius": 24,
              "color": "#AEB0B8",
              "height": 44,
              "margin": 7,
              "overflow": "hidden",
              "shadowColor": "rgba(0,0,0, .4)",
              "shadowOffset": Object {
                "height": 1,
                "width": 1,
              },
              "shadowOpacity": 1,
              "shadowRadius": 1,
              "width": 44,
            }
          }
        >
          <View>
            <View
              style={
                Object {
                  "alignItems": "center",
                  "backgroundColor": "#1F252C",
                  "borderRadius": 24,
                  "height": 44,
                  "justifyContent": "center",
                  "width": 44,
                }
              }
            >
              <Text
                allowFontScaling={false}
                style={
                  Array [
                    Object {
                      "color": "#FFFFFF",
                      "fontSize": 20,
                    },
                    Object {
                      "backgroundColor": "transparent",
                      "fontSize": 28,
                    },
                    Object {
                      "fontFamily": "Material Design Icons",
                      "fontStyle": "normal",
                      "fontWeight": "normal",
                    },
                    Object {},
                  ]
                }
                testID="iconIcon"
              >
                󰅁
              </Text>
            </View>
          </View>
        </View>
      </RCTSafeAreaView>
      <View
        style={
          Array [
            Array [
              Object {
                "backgroundColor": "#1A2025",
              },
            ],
            Object {
              "paddingTop": undefined,
            },
          ]
        }
      >
        <View
          style={
            Array [
              Object {
                "borderBottomWidth": 0.5,
              },
              Object {
                "borderColor": "#414C57",
              },
              undefined,
            ]
          }
        >
          <View
            style={
              Object {
                "alignItems": "center",
                "display": "flex",
                "flexDirection": "row",
                "paddingHorizontal": 16,
                "paddingVertical": 13,
              }
            }
          >
            <View
              onPress={[Function]}
            >
              <View
                style={
                  Array [
                    Object {
                      "overflow": "hidden",
                    },
                    Object {
                      "borderRadius": 18.5,
                      "height": 37,
                      "width": 37,
                    },
                  ]
                }
              >
                <FastImageView
                  resizeMode="cover"
                  source={null}
                  style={
                    Object {
                      "bottom": 0,
                      "left": 0,
                      "position": "absolute",
                      "right": 0,
                      "top": 0,
                    }
                  }
                />
              </View>
            </View>
            <View
              style={
                Object {
                  "flex": 1,
                  "marginLeft": 10,
                  "paddingRight": 5,
                }
              }
            >
              <View
                style={
                  Object {
                    "flexDirection": "column",
                  }
                }
              >
                <View
                  pointerEvents="box-none"
                  style={
                    Array [
                      Object {
                        "flexDirection": "row",
                        "justifyContent": "flex-start",
                      },
                      Object {
                        "alignItems": "center",
                      },
                    ]
                  }
                >
                  <Text
                    accessible={true}
                    focusable={true}
                    hitSlop={
                      Object {
                        "bottom": 4,
                        "left": 4,
                        "right": 4,
                        "top": 4,
                      }
                    }
                    numberOfLines={1}
                    onClick={[Function]}
                    onResponderGrant={[Function]}
                    onResponderMove={[Function]}
                    onResponderRelease={[Function]}
                    onResponderTerminate={[Function]}
                    onResponderTerminationRequest={[Function]}
                    onStartShouldSetResponder={[Function]}
                    style={
                      Array [
                        Object {
                          "color": "#FFFFFF",
                        },
                        Object {
                          "fontFamily": "Roboto-Bold",
                        },
                        Object {
                          "fontSize": 16,
                          "lineHeight": 24,
                        },
                        Object {
                          "textAlign": "left",
                        },
                      ]
                    }
                  >
                    Some User
                    <Text
                      numberOfLines={1}
                      style={
                        Array [
                          Object {
                            "color": "#B8C1CA",
                          },
                          Object {
                            "fontFamily": "Roboto-Bold",
                          },
                          Object {
                            "fontSize": 14,
                            "lineHeight": 20,
                          },
                          Object {
                            "textAlign": "left",
                          },
                        ]
                      }
                    >
                       
                      @
                      someusermane
                    </Text>
                  </Text>
                </View>
                <Text
                  style={
                    Array [
                      Object {
                        "color": "#FFFFFF",
                      },
                      Object {
                        "fontFamily": "Roboto",
                      },
                      Array [
                        Object {
                          "color": "#888",
                          "fontSize": 11,
                        },
                        Object {
                          "color": "#B8C1CA",
                        },
                      ],
                    ]
                  }
                >
                  Apr 27 2018 · 07:17
                </Text>
              </View>
            </View>
            <View
              style={
                Object {
                  "flexDirection": "row",
                }
              }
            >
              <View
                style={
                  Array [
                    Object {
                      "position": "relative",
                      "zIndex": 1,
                    },
                    undefined,
                  ]
                }
              >
                <Modal
                  hardwareAccelerated={true}
                  onRequestClose={[Function]}
                  transparent={true}
                  visible={false}
                >
                  <View
                    accessible={true}
                    collapsable={false}
                    focusable={true}
                    onBlur={[Function]}
                    onClick={[Function]}
                    onFocus={[Function]}
                    onResponderGrant={[Function]}
                    onResponderMove={[Function]}
                    onResponderRelease={[Function]}
                    onResponderTerminate={[Function]}
                    onResponderTerminationRequest={[Function]}
                    onStartShouldSetResponder={[Function]}
                    style={
                      Object {
                        "flex": 1,
                      }
                    }
                  >
                    <View
                      pointerEvents="none"
                      style={
                        Array [
                          Object {
                            "overflow": "hidden",
                            "width": 100,
                          },
                          Array [
                            Object {
                              "position": "absolute",
                              "transform": Array [
                                Object {
                                  "translateX": 0,
                                },
                                Object {
                                  "translateY": 0,
                                },
                              ],
                            },
                            undefined,
                          ],
                        ]
                      }
                    >
                      <View
                        collapsable={false}
                        nativeID="animatedComponent"
                        style={
                          Object {
                            "opacity": 1,
                            "transform": Array [
                              Object {
                                "translateY": 0,
                              },
                            ],
                          }
                        }
                      >
                        <View
                          style={
                            Array [
                              Object {
                                "backgroundColor": "black",
                                "borderRadius": 4,
                                "flex": 1,
                                "overflow": "hidden",
                                "zIndex": 1,
                              },
                              Object {
                                "padding": 6,
                              },
                              Object {
                                "backgroundColor": "#1B85D6",
                              },
                            ]
                          }
                        >
                          <Text
                            style={
                              Object {
                                "color": "white",
                                "fontSize": 12,
                                "fontWeight": "bold",
                                "textAlign": "center",
                              }
                            }
                          >
                            Minds Plus
                          </Text>
                        </View>
                        <View
                          style={
                            Array [
                              Object {
                                "backgroundColor": "black",
                                "borderRadius": 2,
                                "height": 10,
                                "transform": Array [
                                  Object {
                                    "rotate": "45deg",
                                  },
                                ],
                                "width": 10,
                              },
                              Object {
                                "alignSelf": "center",
                              },
                              false,
                              Object {
                                "backgroundColor": "#1B85D6",
                              },
                              Object {
                                "marginBottom": 6,
                                "marginTop": -6,
                              },
                              false,
                              false,
                              false,
                              Object {
                                "zIndex": 0,
                              },
                            ]
                          }
                        />
                      </View>
                    </View>
                  </View>
                </Modal>
                <View
                  onLayout={[Function]}
                  pointerEvents="none"
                  style={
                    Array [
                      Object {
                        "overflow": "hidden",
                        "width": 100,
                      },
                      Array [
                        Object {
                          "bottom": "100%",
                        },
                        false,
                        false,
                        false,
                        Object {
                          "position": "absolute",
                          "transform": Array [
                            Object {
                              "translateX": -0,
                            },
                            Object {
                              "translateY": -0,
                            },
                          ],
                        },
                        undefined,
                      ],
                    ]
                  }
                >
                  <View
                    collapsable={false}
                    nativeID="animatedComponent"
                    style={
                      Object {
                        "opacity": 0,
                        "transform": Array [
                          Object {
                            "translateY": 5,
                          },
                        ],
                      }
                    }
                  >
                    <View
                      style={
                        Array [
                          Object {
                            "backgroundColor": "black",
                            "borderRadius": 4,
                            "flex": 1,
                            "overflow": "hidden",
                            "zIndex": 1,
                          },
                          Object {
                            "padding": 6,
                          },
                          Object {
                            "backgroundColor": "#1B85D6",
                          },
                        ]
                      }
                    >
                      <Text
                        style={
                          Object {
                            "color": "white",
                            "fontSize": 12,
                            "fontWeight": "bold",
                            "textAlign": "center",
                          }
                        }
                      >
                        Minds Plus
                      </Text>
                    </View>
                    <View
                      style={
                        Array [
                          Object {
                            "backgroundColor": "black",
                            "borderRadius": 2,
                            "height": 10,
                            "transform": Array [
                              Object {
                                "rotate": "45deg",
                              },
                            ],
                            "width": 10,
                          },
                          Object {
                            "alignSelf": "center",
                          },
                          false,
                          Object {
                            "backgroundColor": "#1B85D6",
                          },
                          Object {
                            "marginBottom": 6,
                            "marginTop": -6,
                          },
                          false,
                          false,
                          false,
                          Object {
                            "zIndex": 0,
                          },
                        ]
                      }
                    />
                  </View>
                </View>
                <View
                  accessible={true}
                  collapsable={false}
                  focusable={true}
                  onBlur={[Function]}
                  onClick={[Function]}
                  onFocus={[Function]}
                  onLayout={[Function]}
                  onResponderGrant={[Function]}
                  onResponderMove={[Function]}
                  onResponderRelease={[Function]}
                  onResponderTerminate={[Function]}
                  onResponderTerminationRequest={[Function]}
                  onStartShouldSetResponder={[Function]}
                >
                  <View
                    style={
                      Object {
                        "marginHorizontal": 1,
                      }
                    }
                  >
                    <View
                      style={
                        Object {
                          "alignItems": "center",
                          "flexDirection": "row",
                          "height": 16,
                          "justifyContent": "center",
                          "overflow": "hidden",
                          "width": 16,
                        }
                      }
                    >
                      <Text
                        allowFontScaling={false}
                        style={
                          Array [
                            Object {
                              "color": "#0085DD",
                              "fontSize": 16,
                            },
                            undefined,
                            Object {
                              "fontFamily": "Material Icons",
                              "fontStyle": "normal",
                              "fontWeight": "normal",
                            },
                            Object {},
                          ]
                        }
                      >
                        
                      </Text>
                    </View>
                  </View>
                </View>
              </View>
              <View
                style={
                  Array [
                    Object {
                      "position": "relative",
                      "zIndex": 1,
                    },
                    undefined,
                  ]
                }
              >
                <Modal
                  hardwareAccelerated={true}
                  onRequestClose={[Function]}
                  transparent={true}
                  visible={false}
                >
                  <View
                    accessible={true}
                    collapsable={false}
                    focusable={true}
                    onBlur={[Function]}
                    onClick={[Function]}
                    onFocus={[Function]}
                    onResponderGrant={[Function]}
                    onResponderMove={[Function]}
                    onResponderRelease={[Function]}
                    onResponderTerminate={[Function]}
                    onResponderTerminationRequest={[Function]}
                    onStartShouldSetResponder={[Function]}
                    style={
                      Object {
                        "flex": 1,
                      }
                    }
                  >
                    <View
                      pointerEvents="none"
                      style={
                        Array [
                          Object {
                            "overflow": "hidden",
                            "width": 100,
                          },
                          Array [
                            Object {
                              "position": "absolute",
                              "transform": Array [
                                Object {
                                  "translateX": 0,
                                },
                                Object {
                                  "translateY": 0,
                                },
                              ],
                            },
                            undefined,
                          ],
                        ]
                      }
                    >
                      <View
                        collapsable={false}
                        nativeID="animatedComponent"
                        style={
                          Object {
                            "opacity": 1,
                            "transform": Array [
                              Object {
                                "translateY": 0,
                              },
                            ],
                          }
                        }
                      >
                        <View
                          style={
                            Array [
                              Object {
                                "backgroundColor": "black",
                                "borderRadius": 4,
                                "flex": 1,
                                "overflow": "hidden",
                                "zIndex": 1,
                              },
                              Object {
                                "padding": 6,
                              },
                              Object {
                                "backgroundColor": "#59A05E",
                              },
                            ]
                          }
                        >
                          <Text
                            style={
                              Object {
                                "color": "white",
                                "fontSize": 12,
                                "fontWeight": "bold",
                                "textAlign": "center",
                              }
                            }
                          >
                            Verified
                          </Text>
                        </View>
                        <View
                          style={
                            Array [
                              Object {
                                "backgroundColor": "black",
                                "borderRadius": 2,
                                "height": 10,
                                "transform": Array [
                                  Object {
                                    "rotate": "45deg",
                                  },
                                ],
                                "width": 10,
                              },
                              Object {
                                "alignSelf": "center",
                              },
                              false,
                              Object {
                                "backgroundColor": "#59A05E",
                              },
                              Object {
                                "marginBottom": 6,
                                "marginTop": -6,
                              },
                              false,
                              false,
                              false,
                              Object {
                                "zIndex": 0,
                              },
                            ]
                          }
                        />
                      </View>
                    </View>
                  </View>
                </Modal>
                <View
                  onLayout={[Function]}
                  pointerEvents="none"
                  style={
                    Array [
                      Object {
                        "overflow": "hidden",
                        "width": 100,
                      },
                      Array [
                        Object {
                          "bottom": "100%",
                        },
                        false,
                        false,
                        false,
                        Object {
                          "position": "absolute",
                          "transform": Array [
                            Object {
                              "translateX": -0,
                            },
                            Object {
                              "translateY": -0,
                            },
                          ],
                        },
                        undefined,
                      ],
                    ]
                  }
                >
                  <View
                    collapsable={false}
                    nativeID="animatedComponent"
                    style={
                      Object {
                        "opacity": 0,
                        "transform": Array [
                          Object {
                            "translateY": 5,
                          },
                        ],
                      }
                    }
                  >
                    <View
                      style={
                        Array [
                          Object {
                            "backgroundColor": "black",
                            "borderRadius": 4,
                            "flex": 1,
                            "overflow": "hidden",
                            "zIndex": 1,
                          },
                          Object {
                            "padding": 6,
                          },
                          Object {
                            "backgroundColor": "#59A05E",
                          },
                        ]
                      }
                    >
                      <Text
                        style={
                          Object {
                            "color": "white",
                            "fontSize": 12,
                            "fontWeight": "bold",
                            "textAlign": "center",
                          }
                        }
                      >
                        Verified
                      </Text>
                    </View>
                    <View
                      style={
                        Array [
                          Object {
                            "backgroundColor": "black",
                            "borderRadius": 2,
                            "height": 10,
                            "transform": Array [
                              Object {
                                "rotate": "45deg",
                              },
                            ],
                            "width": 10,
                          },
                          Object {
                            "alignSelf": "center",
                          },
                          false,
                          Object {
                            "backgroundColor": "#59A05E",
                          },
                          Object {
                            "marginBottom": 6,
                            "marginTop": -6,
                          },
                          false,
                          false,
                          false,
                          Object {
                            "zIndex": 0,
                          },
                        ]
                      }
                    />
                  </View>
                </View>
                <View
                  accessible={true}
                  collapsable={false}
                  focusable={true}
                  onBlur={[Function]}
                  onClick={[Function]}
                  onFocus={[Function]}
                  onLayout={[Function]}
                  onResponderGrant={[Function]}
                  onResponderMove={[Function]}
                  onResponderRelease={[Function]}
                  onResponderTerminate={[Function]}
                  onResponderTerminationRequest={[Function]}
                  onStartShouldSetResponder={[Function]}
                >
                  <View
                    style={
                      Object {
                        "marginHorizontal": 1,
                      }
                    }
                  >
                    <View
                      style={
                        Object {
                          "alignItems": "center",
                          "flexDirection": "row",
                          "height": 16,
                          "justifyContent": "center",
                          "overflow": "hidden",
                          "width": 16,
                        }
                      }
                    >
                      <Text
                        allowFontScaling={false}
                        style={
                          Array [
                            Object {
                              "color": "#0085DD",
                              "fontSize": 15.68,
                            },
                            undefined,
                            Object {
                              "fontFamily": "Material Icons",
                              "fontStyle": "normal",
                              "fontWeight": "normal",
                            },
                            Object {},
                          ]
                        }
                      >
                        
                      </Text>
                    </View>
                  </View>
                </View>
              </View>
            </View>
            <View
              style={
                Object {
                  "paddingLeft": 5,
                }
              }
            >
              <View>
                <Text
                  allowFontScaling={false}
                  onPress={[Function]}
                  style={
                    Array [
                      Object {
                        "color": undefined,
                        "fontSize": 28,
                      },
                      Object {
                        "color": "#797B82",
                      },
                      Object {
                        "fontFamily": "Material Icons",
                        "fontStyle": "normal",
                        "fontWeight": "normal",
                      },
                      Object {},
                    ]
                  }
                >
                  
                </Text>
              </View>
            </View>
          </View>
        </View>
      </View>
      <View>
        <View
          style={
            Object {
              "paddingBottom": 15,
              "paddingLeft": 15,
              "paddingRight": 15,
            }
          }
        >
          <BlogViewHTML
            html="Some Blog"
          />
        </View>
        <View
          style={
            Object {
              "flexDirection": "row",
              "padding": 12,
            }
          }
        >
          <View
            style={
              Object {
                "overflow": "hidden",
              }
            }
          >
            <View
              style={
                Object {
                  "color": "#AEB0B8",
                }
              }
            >
              <View
                style={
                  Object {
                    "alignItems": "center",
                    "backgroundColor": "transparent",
                    "justifyContent": "center",
                  }
                }
              >
                <Text
                  allowFontScaling={false}
                  style={
                    Array [
                      Object {
                        "color": "#242424",
                        "fontSize": 18,
                      },
                      Object {
                        "backgroundColor": "transparent",
                      },
                      Object {
                        "fontFamily": "Material Icons",
                        "fontStyle": "normal",
                        "fontWeight": "normal",
                      },
                      Object {},
                    ]
                  }
                  testID="iconIcon"
                >
                  
                </Text>
              </View>
            </View>
          </View>
          <Text
            style={
              Array [
                Object {
                  "color": "#FFFFFF",
                },
                Object {
                  "fontFamily": "Roboto",
                },
                Array [
                  Object {
                    "fontSize": 10,
                  },
                  Object {
                    "paddingLeft": 4,
                  },
                  Object {
                    "color": "#B8C1CA",
                  },
                  Object {
                    "paddingRight": 8,
                  },
                ],
              ]
            }
          >
            Attribution-NonCommerical CC BY-NC
          </Text>
        </View>
      </View>
    </View>
  </RCTScrollView>
  <RCTSafeAreaView
    emulateUnlessSupported={true}
    style={
      Object {
        "backgroundColor": "#1F252C",
      }
    }
  >
    <View>
      <View
        style={
          Array [
            Object {
              "borderTopWidth": 0.5,
              "display": "flex",
              "flexDirection": "row",
              "justifyContent": "space-around",
              "paddingHorizontal": 16,
            },
            Object {
              "borderColor": "#414C57",
            },
          ]
        }
      >
        <ThumbUpAction
          entity={
            Object {
              "access_id": "2",
              "allow_comments": true,
              "boost_rejection_reason": -1,
              "categories": Array [],
              "category": "education",
              "comments:count": undefined,
              "container_guid": "100",
              "custom_meta": Object {
                "author": "",
                "description": "",
                "title": "",
              },
              "description": "Some Blog",
              "draft_access_id": "0",
              "edited": "0",
              "entity_guid": "",
              "excerpt": "Some description",
              "featured": false,
              "featured_id": false,
              "getLockType": [Function],
              "guid": "1",
              "header_bg": "1",
              "header_top": "0",
              "impressions": 100,
              "isOwner": [Function],
              "is_visible": false,
              "last_save": "1524843907",
              "last_updated": "1524838665",
              "license": "attribution-noncommercial-cc",
              "mature": false,
              "mature_visibility": false,
              "message": "",
              "monetized": false,
              "ownerObj": Object {
                "__list": null,
                "access_id": "2",
                "allow_comments": true,
                "banned": "no",
                "blocked": false,
                "boostProPlus": false,
                "boost_autorotate": true,
                "boost_rating": "2",
                "briefdescription": "",
                "canary": false,
                "categories": Array [
                  "music",
                  "nature",
                  "news",
                  "politics",
                  "science",
                  "technology",
                  "education",
                  "art",
                  "health",
                ],
                "chat": true,
                "city": "",
                "confirmEmail": [Function],
                "container_guid": "0",
                "deleted": "0",
                "disable_autoplay_videos": undefined,
                "disabled_boost": false,
                "dob": "",
                "email_confirmed": false,
                "eth_wallet": "0x6fffffdadae350ddd5a1777d5a1777a4f39f0317",
                "fb": false,
                "feature_flags": false,
                "featured_id": "725165605782560768",
                "founder": false,
                "gender": "private",
                "getAvatarSource": [MockFunction] {
                  "calls": Array [
                    Array [],
                  ],
                  "results": Array [
                    Object {
                      "type": "return",
                      "value": undefined,
                    },
                  ],
                },
                "groupsCount": 0,
                "guid": 100,
                "icontime": "1523515420",
                "impressions": 100,
                "isOwner": [Function],
                "is_admin": false,
                "language": "en",
                "last_accepted_tos": 0,
                "legacy_guid": false,
                "mature": "1",
                "mature_channel": "0",
                "mature_visibility": false,
                "merchant": Object {
                  "exclusive": Object {
                    "amount": "10",
                    "enabled": true,
                  },
                  "id": "acct_Dsdfjdlsaf34243",
                  "service": "stripe",
                },
                "mode": 0,
                "monetized": "",
                "name": "Some User",
                "nsfw": Array [],
                "onchain_booster": 0,
                "owner_guid": "0",
                "pending_subscribe": false,
                "permissions": Object {},
                "pinned_posts": Array [],
                "plus": true,
                "plus_method": "tokens",
                "pro": false,
                "pro_method": "tokens",
                "programs": Array [
                  "affiliate",
                ],
                "rating": "1",
                "rewards": true,
                "signup_method": false,
                "site_guid": false,
                "social_profiles": Array [],
                "spam": "0",
                "subscribed": false,
                "subscriber": true,
                "subscribers_count": 50,
                "subscriptions_count": 0,
                "subtype": false,
                "tags": Array [],
                "time_created": "1468113204",
                "time_updated": false,
                "type": "user",
                "urn": "",
                "username": "someusermane",
                "verified": true,
                "website": "",
                "wire_rewards": Object {
                  "description": "",
                  "rewards": Object {
                    "money": Array [],
                    "points": Array [],
                  },
                },
              },
              "owner_guid": "1",
              "paywall": false,
              "paywall_unlocked": false,
              "perma_url": "https://www.minds.com/blog/view/836607056186159104",
              "permissions": Object {},
              "pinned": false,
              "published": true,
              "quotes": 0,
              "rating": 1,
              "reminds": 58,
              "route": "blog/view/836607056186159104",
              "slug": "",
              "subtype": "blog",
              "thumbnail_src": "https://www.minds.com/fs/v1/banners/836607056186159104/1524838665",
              "thumbs:down:count": 1,
              "thumbs:down:user_guids": Array [
                "3",
              ],
              "thumbs:up:count": 2,
              "thumbs:up:user_guids": Array [
                "1",
                "2",
              ],
              "time_created": "1524838665",
              "time_published": "1524838665",
              "time_updated": "1524862542",
              "title": "Some Title",
              "type": "object",
              "urn": "",
              "username": "",
              "wire_threshold": "",
            }
          }
        />
        <ThumbDownAction
          entity={
            Object {
              "access_id": "2",
              "allow_comments": true,
              "boost_rejection_reason": -1,
              "categories": Array [],
              "category": "education",
              "comments:count": undefined,
              "container_guid": "100",
              "custom_meta": Object {
                "author": "",
                "description": "",
                "title": "",
              },
              "description": "Some Blog",
              "draft_access_id": "0",
              "edited": "0",
              "entity_guid": "",
              "excerpt": "Some description",
              "featured": false,
              "featured_id": false,
              "getLockType": [Function],
              "guid": "1",
              "header_bg": "1",
              "header_top": "0",
              "impressions": 100,
              "isOwner": [Function],
              "is_visible": false,
              "last_save": "1524843907",
              "last_updated": "1524838665",
              "license": "attribution-noncommercial-cc",
              "mature": false,
              "mature_visibility": false,
              "message": "",
              "monetized": false,
              "ownerObj": Object {
                "__list": null,
                "access_id": "2",
                "allow_comments": true,
                "banned": "no",
                "blocked": false,
                "boostProPlus": false,
                "boost_autorotate": true,
                "boost_rating": "2",
                "briefdescription": "",
                "canary": false,
                "categories": Array [
                  "music",
                  "nature",
                  "news",
                  "politics",
                  "science",
                  "technology",
                  "education",
                  "art",
                  "health",
                ],
                "chat": true,
                "city": "",
                "confirmEmail": [Function],
                "container_guid": "0",
                "deleted": "0",
                "disable_autoplay_videos": undefined,
                "disabled_boost": false,
                "dob": "",
                "email_confirmed": false,
                "eth_wallet": "0x6fffffdadae350ddd5a1777d5a1777a4f39f0317",
                "fb": false,
                "feature_flags": false,
                "featured_id": "725165605782560768",
                "founder": false,
                "gender": "private",
                "getAvatarSource": [MockFunction] {
                  "calls": Array [
                    Array [],
                  ],
                  "results": Array [
                    Object {
                      "type": "return",
                      "value": undefined,
                    },
                  ],
                },
                "groupsCount": 0,
                "guid": 100,
                "icontime": "1523515420",
                "impressions": 100,
                "isOwner": [Function],
                "is_admin": false,
                "language": "en",
                "last_accepted_tos": 0,
                "legacy_guid": false,
                "mature": "1",
                "mature_channel": "0",
                "mature_visibility": false,
                "merchant": Object {
                  "exclusive": Object {
                    "amount": "10",
                    "enabled": true,
                  },
                  "id": "acct_Dsdfjdlsaf34243",
                  "service": "stripe",
                },
                "mode": 0,
                "monetized": "",
                "name": "Some User",
                "nsfw": Array [],
                "onchain_booster": 0,
                "owner_guid": "0",
                "pending_subscribe": false,
                "permissions": Object {},
                "pinned_posts": Array [],
                "plus": true,
                "plus_method": "tokens",
                "pro": false,
                "pro_method": "tokens",
                "programs": Array [
                  "affiliate",
                ],
                "rating": "1",
                "rewards": true,
                "signup_method": false,
                "site_guid": false,
                "social_profiles": Array [],
                "spam": "0",
                "subscribed": false,
                "subscriber": true,
                "subscribers_count": 50,
                "subscriptions_count": 0,
                "subtype": false,
                "tags": Array [],
                "time_created": "1468113204",
                "time_updated": false,
                "type": "user",
                "urn": "",
                "username": "someusermane",
                "verified": true,
                "website": "",
                "wire_rewards": Object {
                  "description": "",
                  "rewards": Object {
                    "money": Array [],
                    "points": Array [],
                  },
                },
              },
              "owner_guid": "1",
              "paywall": false,
              "paywall_unlocked": false,
              "perma_url": "https://www.minds.com/blog/view/836607056186159104",
              "permissions": Object {},
              "pinned": false,
              "published": true,
              "quotes": 0,
              "rating": 1,
              "reminds": 58,
              "route": "blog/view/836607056186159104",
              "slug": "",
              "subtype": "blog",
              "thumbnail_src": "https://www.minds.com/fs/v1/banners/836607056186159104/1524838665",
              "thumbs:down:count": 1,
              "thumbs:down:user_guids": Array [
                "3",
              ],
              "thumbs:up:count": 2,
              "thumbs:up:user_guids": Array [
                "1",
                "2",
              ],
              "time_created": "1524838665",
              "time_published": "1524838665",
              "time_updated": "1524862542",
              "title": "Some Title",
              "type": "object",
              "urn": "",
              "username": "",
              "wire_threshold": "",
            }
          }
        />
        <CommentsAction
          entity={
            Object {
              "access_id": "2",
              "allow_comments": true,
              "boost_rejection_reason": -1,
              "categories": Array [],
              "category": "education",
              "comments:count": undefined,
              "container_guid": "100",
              "custom_meta": Object {
                "author": "",
                "description": "",
                "title": "",
              },
              "description": "Some Blog",
              "draft_access_id": "0",
              "edited": "0",
              "entity_guid": "",
              "excerpt": "Some description",
              "featured": false,
              "featured_id": false,
              "getLockType": [Function],
              "guid": "1",
              "header_bg": "1",
              "header_top": "0",
              "impressions": 100,
              "isOwner": [Function],
              "is_visible": false,
              "last_save": "1524843907",
              "last_updated": "1524838665",
              "license": "attribution-noncommercial-cc",
              "mature": false,
              "mature_visibility": false,
              "message": "",
              "monetized": false,
              "ownerObj": Object {
                "__list": null,
                "access_id": "2",
                "allow_comments": true,
                "banned": "no",
                "blocked": false,
                "boostProPlus": false,
                "boost_autorotate": true,
                "boost_rating": "2",
                "briefdescription": "",
                "canary": false,
                "categories": Array [
                  "music",
                  "nature",
                  "news",
                  "politics",
                  "science",
                  "technology",
                  "education",
                  "art",
                  "health",
                ],
                "chat": true,
                "city": "",
                "confirmEmail": [Function],
                "container_guid": "0",
                "deleted": "0",
                "disable_autoplay_videos": undefined,
                "disabled_boost": false,
                "dob": "",
                "email_confirmed": false,
                "eth_wallet": "0x6fffffdadae350ddd5a1777d5a1777a4f39f0317",
                "fb": false,
                "feature_flags": false,
                "featured_id": "725165605782560768",
                "founder": false,
                "gender": "private",
                "getAvatarSource": [MockFunction] {
                  "calls": Array [
                    Array [],
                  ],
                  "results": Array [
                    Object {
                      "type": "return",
                      "value": undefined,
                    },
                  ],
                },
                "groupsCount": 0,
                "guid": 100,
                "icontime": "1523515420",
                "impressions": 100,
                "isOwner": [Function],
                "is_admin": false,
                "language": "en",
                "last_accepted_tos": 0,
                "legacy_guid": false,
                "mature": "1",
                "mature_channel": "0",
                "mature_visibility": false,
                "merchant": Object {
                  "exclusive": Object {
                    "amount": "10",
                    "enabled": true,
                  },
                  "id": "acct_Dsdfjdlsaf34243",
                  "service": "stripe",
                },
                "mode": 0,
                "monetized": "",
                "name": "Some User",
                "nsfw": Array [],
                "onchain_booster": 0,
                "owner_guid": "0",
                "pending_subscribe": false,
                "permissions": Object {},
                "pinned_posts": Array [],
                "plus": true,
                "plus_method": "tokens",
                "pro": false,
                "pro_method": "tokens",
                "programs": Array [
                  "affiliate",
                ],
                "rating": "1",
                "rewards": true,
                "signup_method": false,
                "site_guid": false,
                "social_profiles": Array [],
                "spam": "0",
                "subscribed": false,
                "subscriber": true,
                "subscribers_count": 50,
                "subscriptions_count": 0,
                "subtype": false,
                "tags": Array [],
                "time_created": "1468113204",
                "time_updated": false,
                "type": "user",
                "urn": "",
                "username": "someusermane",
                "verified": true,
                "website": "",
                "wire_rewards": Object {
                  "description": "",
                  "rewards": Object {
                    "money": Array [],
                    "points": Array [],
                  },
                },
              },
              "owner_guid": "1",
              "paywall": false,
              "paywall_unlocked": false,
              "perma_url": "https://www.minds.com/blog/view/836607056186159104",
              "permissions": Object {},
              "pinned": false,
              "published": true,
              "quotes": 0,
              "rating": 1,
              "reminds": 58,
              "route": "blog/view/836607056186159104",
              "slug": "",
              "subtype": "blog",
              "thumbnail_src": "https://www.minds.com/fs/v1/banners/836607056186159104/1524838665",
              "thumbs:down:count": 1,
              "thumbs:down:user_guids": Array [
                "3",
              ],
              "thumbs:up:count": 2,
              "thumbs:up:user_guids": Array [
                "1",
                "2",
              ],
              "time_created": "1524838665",
              "time_published": "1524838665",
              "time_updated": "1524862542",
              "title": "Some Title",
              "type": "object",
              "urn": "",
              "username": "",
              "wire_threshold": "",
            }
          }
          onPressComment={[Function]}
          testID=""
        />
        <RemindAction
          entity={
            Object {
              "access_id": "2",
              "allow_comments": true,
              "boost_rejection_reason": -1,
              "categories": Array [],
              "category": "education",
              "comments:count": undefined,
              "container_guid": "100",
              "custom_meta": Object {
                "author": "",
                "description": "",
                "title": "",
              },
              "description": "Some Blog",
              "draft_access_id": "0",
              "edited": "0",
              "entity_guid": "",
              "excerpt": "Some description",
              "featured": false,
              "featured_id": false,
              "getLockType": [Function],
              "guid": "1",
              "header_bg": "1",
              "header_top": "0",
              "impressions": 100,
              "isOwner": [Function],
              "is_visible": false,
              "last_save": "1524843907",
              "last_updated": "1524838665",
              "license": "attribution-noncommercial-cc",
              "mature": false,
              "mature_visibility": false,
              "message": "",
              "monetized": false,
              "ownerObj": Object {
                "__list": null,
                "access_id": "2",
                "allow_comments": true,
                "banned": "no",
                "blocked": false,
                "boostProPlus": false,
                "boost_autorotate": true,
                "boost_rating": "2",
                "briefdescription": "",
                "canary": false,
                "categories": Array [
                  "music",
                  "nature",
                  "news",
                  "politics",
                  "science",
                  "technology",
                  "education",
                  "art",
                  "health",
                ],
                "chat": true,
                "city": "",
                "confirmEmail": [Function],
                "container_guid": "0",
                "deleted": "0",
                "disable_autoplay_videos": undefined,
                "disabled_boost": false,
                "dob": "",
                "email_confirmed": false,
                "eth_wallet": "0x6fffffdadae350ddd5a1777d5a1777a4f39f0317",
                "fb": false,
                "feature_flags": false,
                "featured_id": "725165605782560768",
                "founder": false,
                "gender": "private",
                "getAvatarSource": [MockFunction] {
                  "calls": Array [
                    Array [],
                  ],
                  "results": Array [
                    Object {
                      "type": "return",
                      "value": undefined,
                    },
                  ],
                },
                "groupsCount": 0,
                "guid": 100,
                "icontime": "1523515420",
                "impressions": 100,
                "isOwner": [Function],
                "is_admin": false,
                "language": "en",
                "last_accepted_tos": 0,
                "legacy_guid": false,
                "mature": "1",
                "mature_channel": "0",
                "mature_visibility": false,
                "merchant": Object {
                  "exclusive": Object {
                    "amount": "10",
                    "enabled": true,
                  },
                  "id": "acct_Dsdfjdlsaf34243",
                  "service": "stripe",
                },
                "mode": 0,
                "monetized": "",
                "name": "Some User",
                "nsfw": Array [],
                "onchain_booster": 0,
                "owner_guid": "0",
                "pending_subscribe": false,
                "permissions": Object {},
                "pinned_posts": Array [],
                "plus": true,
                "plus_method": "tokens",
                "pro": false,
                "pro_method": "tokens",
                "programs": Array [
                  "affiliate",
                ],
                "rating": "1",
                "rewards": true,
                "signup_method": false,
                "site_guid": false,
                "social_profiles": Array [],
                "spam": "0",
                "subscribed": false,
                "subscriber": true,
                "subscribers_count": 50,
                "subscriptions_count": 0,
                "subtype": false,
                "tags": Array [],
                "time_created": "1468113204",
                "time_updated": false,
                "type": "user",
                "urn": "",
                "username": "someusermane",
                "verified": true,
                "website": "",
                "wire_rewards": Object {
                  "description": "",
                  "rewards": Object {
                    "money": Array [],
                    "points": Array [],
                  },
                },
              },
              "owner_guid": "1",
              "paywall": false,
              "paywall_unlocked": false,
              "perma_url": "https://www.minds.com/blog/view/836607056186159104",
              "permissions": Object {},
              "pinned": false,
              "published": true,
              "quotes": 0,
              "rating": 1,
              "reminds": 58,
              "route": "blog/view/836607056186159104",
              "slug": "",
              "subtype": "blog",
              "thumbnail_src": "https://www.minds.com/fs/v1/banners/836607056186159104/1524838665",
              "thumbs:down:count": 1,
              "thumbs:down:user_guids": Array [
                "3",
              ],
              "thumbs:up:count": 2,
              "thumbs:up:user_guids": Array [
                "1",
                "2",
              ],
              "time_created": "1524838665",
              "time_published": "1524838665",
              "time_updated": "1524862542",
              "title": "Some Title",
              "type": "object",
              "urn": "",
              "username": "",
              "wire_threshold": "",
            }
          }
        />
        <View
          style={
            Array [
              Object {
                "alignItems": "center",
                "justifyContent": "center",
                "position": "relative",
              },
              undefined,
              Array [
                Object {
                  "flex": 1,
                  "flexDirection": "column",
                },
                Object {
                  "margin": 4,
                },
                Object {
                  "paddingVertical": 12,
                },
                Object {
                  "alignItems": "center",
                },
              ],
            ]
          }
        >
          <View
            accessible={true}
            collapsable={false}
            focusable={true}
            hitSlop={
              Object {
                "bottom": 6.666666666666666,
                "left": 6.666666666666666,
                "right": 6.666666666666666,
                "top": 6.666666666666666,
              }
            }
            onBlur={[Function]}
            onClick={[Function]}
            onFocus={[Function]}
            onResponderGrant={[Function]}
            onResponderMove={[Function]}
            onResponderRelease={[Function]}
            onResponderTerminate={[Function]}
            onResponderTerminationRequest={[Function]}
            onStartShouldSetResponder={[Function]}
            style={
              Array [
                Object {
                  "alignItems": "center",
                  "justifyContent": "center",
                },
                Object {
                  "alignItems": "center",
                  "bottom": 0,
                  "justifyContent": "center",
                  "left": 0,
                  "position": "absolute",
                  "right": 0,
                  "top": 0,
                },
              ]
            }
          >
            <View
              collapsable={false}
              nativeID="animatedComponent"
              style={
                Object {
                  "transform": Array [
                    Object {
                      "scale": 1,
                    },
                  ],
                }
              }
            >
              <View
                style={
                  Object {
                    "alignItems": "center",
                    "flexDirection": "row",
                    "justifyContent": "center",
                  }
                }
              >
                <View
                  style={
                    Object {
                      "alignItems": "center",
                      "flexDirection": "row",
                      "height": 20,
                      "justifyContent": "center",
                      "overflow": "hidden",
                      "width": 20,
                    }
                  }
                >
                  <Text
                    allowFontScaling={false}
                    style={
                      Array [
                        Object {
                          "color": "#AEB0B8",
                          "fontSize": 20,
                        },
                        Object {
                          "marginTop": -2,
                        },
                        Object {
                          "fontFamily": "Material Icons",
                          "fontStyle": "normal",
                          "fontWeight": "normal",
                        },
                        Object {},
                      ]
                    }
                  >
                    
                  </Text>
                </View>
              </View>
            </View>
          </View>
        </View>
        <Modal
          animationType="none"
          deviceHeight={null}
          deviceWidth={null}
          hardwareAccelerated={false}
          hideModalContentWhileAnimating={false}
          onBackdropPress={[Function]}
          onModalHide={[Function]}
          onModalWillHide={[Function]}
          onModalWillShow={[Function]}
          onRequestClose={[Function]}
          onSwipeComplete={[Function]}
          panResponderThreshold={4}
          scrollHorizontal={false}
          scrollOffset={0}
          scrollOffsetMax={0}
          scrollTo={null}
          supportedOrientations={
            Array [
              "portrait",
              "landscape",
            ]
          }
          swipeDirection="down"
          swipeThreshold={100}
          transparent={true}
          visible={false}
        >
          <View
            accessible={true}
            collapsable={false}
            focusable={true}
            forwardedRef={[Function]}
            nativeID="animatedComponent"
            onClick={[Function]}
            onResponderGrant={[Function]}
            onResponderMove={[Function]}
            onResponderRelease={[Function]}
            onResponderTerminate={[Function]}
            onResponderTerminationRequest={[Function]}
            onStartShouldSetResponder={[Function]}
            style={
              Object {
                "backgroundColor": "#1A2025",
                "bottom": 0,
                "height": 1334,
                "left": 0,
                "opacity": 0,
                "position": "absolute",
                "right": 0,
                "top": 0,
                "width": 750,
              }
            }
          />
          <View
            onLayout={[Function]}
            pointerEvents="box-none"
            style={
              Array [
                Array [
                  Object {
                    "margin": 37.5,
                    "transform": Array [
                      Object {
                        "translateY": 0,
                      },
                    ],
                  },
                  Object {
                    "flex": 1,
                    "justifyContent": "center",
                  },
                  Array [
                    Object {
                      "width": "100%",
                    },
                    Object {
                      "margin": 1,
                    },
                    Object {
                      "justifyContent": "flex-end",
                    },
                  ],
                  Object {
                    "margin": 0,
                  },
                ],
                Object {
                  "paddingBottom": 0,
                },
              ]
            }
          >
            <View
              collapsable={false}
              deviceHeight={null}
              deviceWidth={null}
              forwardedRef={[Function]}
              hideModalContentWhileAnimating={false}
              nativeID="animatedComponent"
              onBackdropPress={[Function]}
              onModalHide={[Function]}
              onModalWillHide={[Function]}
              onModalWillShow={[Function]}
              onMoveShouldSetResponder={[Function]}
              onMoveShouldSetResponderCapture={[Function]}
              onResponderEnd={[Function]}
              onResponderGrant={[Function]}
              onResponderMove={[Function]}
              onResponderReject={[Function]}
              onResponderRelease={[Function]}
              onResponderStart={[Function]}
              onResponderTerminate={[Function]}
              onResponderTerminationRequest={[Function]}
              onStartShouldSetResponder={[Function]}
              onStartShouldSetResponderCapture={[Function]}
              onSwipeComplete={[Function]}
              panResponderThreshold={4}
              pointerEvents="box-none"
              scrollHorizontal={false}
              scrollOffset={0}
              scrollOffsetMax={0}
              scrollTo={null}
              style={
                Object {
                  "flex": 1,
                  "justifyContent": "flex-end",
                  "margin": 1,
                  "transform": Array [
                    Object {
                      "translateY": 0,
                    },
                  ],
                  "width": "100%",
                }
              }
              supportedOrientations={
                Array [
                  "portrait",
                  "landscape",
                ]
              }
              swipeDirection="down"
              swipeThreshold={100}
            >
              <View
                style={
                  Object {
                    "paddingBottom": 4,
                  }
                }
              >
                <View
                  style={
                    Object {
                      "paddingBottom": 8,
                    }
                  }
                >
                  <View
                    onPress={[Function]}
                    underlayColor="transparent"
                  >
                    <View
                      style={
                        Object {
                          "alignItems": "center",
                          "backgroundColor": "#1F252C",
                          "borderBottomWidth": 0.5,
                          "borderColor": "#414C57",
                          "borderTopLeftRadius": 10,
                          "borderTopRightRadius": 10,
                          "flexDirection": "row",
                          "marginHorizontal": 12,
                          "padding": 14,
                        }
                      }
                      testID="padView"
                    >
                      <View
                        style={
                          Object {
                            "alignItems": "flex-start",
                            "flex": 1,
                            "justifyContent": "center",
                          }
                        }
                        theme={
                          Object {
                            "colors": Object {
                              "black": "#242424",
                              "disabled": "hsl(208, 8%, 90%)",
                              "divider": "#bcbbc1",
                              "error": "#ff190c",
                              "grey0": "#393e42",
                              "grey1": "#43484d",
                              "grey2": "#5e6977",
                              "grey3": "#86939e",
                              "grey4": "#bdc6cf",
                              "grey5": "#e1e8ee",
                              "greyOutline": "#bbb",
                              "platform": Object {
                                "android": Object {
                                  "error": "#f44336",
                                  "grey": "rgba(0, 0, 0, 0.54)",
                                  "primary": "#2196f3",
                                  "secondary": "#9C27B0",
                                  "success": "#4caf50",
                                  "warning": "#ffeb3b",
                                },
                                "ios": Object {
                                  "error": "#ff3b30",
                                  "grey": "#7d7d7d",
                                  "primary": "#007aff",
                                  "searchBg": "#dcdce1",
                                  "secondary": "#5856d6",
                                  "success": "#4cd964",
                                  "warning": "#ffcc00",
                                },
                              },
                              "primary": "#2089dc",
                              "searchBg": "#303337",
                              "secondary": "#ca71eb",
                              "success": "#52c41a",
                              "warning": "#faad14",
                              "white": "#ffffff",
                            },
                          }
                        }
                      >
                        <Text
                          style={
                            Object {
                              "alignContent": "center",
                              "alignItems": "center",
                              "alignSelf": "center",
                              "backgroundColor": "transparent",
                              "color": "#FFFFFF",
                              "fontSize": 18,
                              "justifyContent": "center",
                              "paddingVertical": 4,
                            }
                          }
                          testID="listItemTitle"
                        >
                          Send to
                        </Text>
                      </View>
                    </View>
                  </View>
                  <View
                    onPress={[Function]}
                    underlayColor="transparent"
                  >
                    <View
                      style={
                        Object {
                          "alignItems": "center",
                          "backgroundColor": "#1F252C",
                          "borderBottomLeftRadius": 10,
                          "borderBottomRightRadius": 10,
                          "borderColor": "#414C57",
                          "flexDirection": "row",
                          "marginBottom": 10,
                          "marginHorizontal": 12,
                          "padding": 14,
                        }
                      }
                      testID="padView"
                    >
                      <View
                        style={
                          Object {
                            "alignItems": "flex-start",
                            "flex": 1,
                            "justifyContent": "center",
                          }
                        }
                        theme={
                          Object {
                            "colors": Object {
                              "black": "#242424",
                              "disabled": "hsl(208, 8%, 90%)",
                              "divider": "#bcbbc1",
                              "error": "#ff190c",
                              "grey0": "#393e42",
                              "grey1": "#43484d",
                              "grey2": "#5e6977",
                              "grey3": "#86939e",
                              "grey4": "#bdc6cf",
                              "grey5": "#e1e8ee",
                              "greyOutline": "#bbb",
                              "platform": Object {
                                "android": Object {
                                  "error": "#f44336",
                                  "grey": "rgba(0, 0, 0, 0.54)",
                                  "primary": "#2196f3",
                                  "secondary": "#9C27B0",
                                  "success": "#4caf50",
                                  "warning": "#ffeb3b",
                                },
                                "ios": Object {
                                  "error": "#ff3b30",
                                  "grey": "#7d7d7d",
                                  "primary": "#007aff",
                                  "searchBg": "#dcdce1",
                                  "secondary": "#5856d6",
                                  "success": "#4cd964",
                                  "warning": "#ffcc00",
                                },
                              },
                              "primary": "#2089dc",
                              "searchBg": "#303337",
                              "secondary": "#ca71eb",
                              "success": "#52c41a",
                              "warning": "#faad14",
                              "white": "#ffffff",
                            },
                          }
                        }
                      >
                        <Text
                          style={
                            Object {
                              "alignContent": "center",
                              "alignItems": "center",
                              "alignSelf": "center",
                              "backgroundColor": "transparent",
                              "color": "#FFFFFF",
                              "fontSize": 18,
                              "justifyContent": "center",
                              "paddingVertical": 4,
                            }
                          }
                          testID="listItemTitle"
                        >
                          Share
                        </Text>
                      </View>
                    </View>
                  </View>
                </View>
                <View
                  style={
                    Object {
                      "paddingBottom": 8,
                    }
                  }
                >
                  <View
                    onPress={[Function]}
                    underlayColor="transparent"
                  >
                    <View
                      style={
                        Object {
                          "alignItems": "center",
                          "backgroundColor": "#1F252C",
                          "borderBottomLeftRadius": 10,
                          "borderBottomRightRadius": 10,
                          "borderColor": "#414C57",
                          "borderTopLeftRadius": 10,
                          "borderTopRightRadius": 10,
                          "flexDirection": "row",
                          "marginBottom": 10,
                          "marginHorizontal": 12,
                          "padding": 14,
                        }
                      }
                      testID="padView"
                    >
                      <View
                        style={
                          Object {
                            "alignItems": "flex-start",
                            "flex": 1,
                            "justifyContent": "center",
                          }
                        }
                        theme={
                          Object {
                            "colors": Object {
                              "black": "#242424",
                              "disabled": "hsl(208, 8%, 90%)",
                              "divider": "#bcbbc1",
                              "error": "#ff190c",
                              "grey0": "#393e42",
                              "grey1": "#43484d",
                              "grey2": "#5e6977",
                              "grey3": "#86939e",
                              "grey4": "#bdc6cf",
                              "grey5": "#e1e8ee",
                              "greyOutline": "#bbb",
                              "platform": Object {
                                "android": Object {
                                  "error": "#f44336",
                                  "grey": "rgba(0, 0, 0, 0.54)",
                                  "primary": "#2196f3",
                                  "secondary": "#9C27B0",
                                  "success": "#4caf50",
                                  "warning": "#ffeb3b",
                                },
                                "ios": Object {
                                  "error": "#ff3b30",
                                  "grey": "#7d7d7d",
                                  "primary": "#007aff",
                                  "searchBg": "#dcdce1",
                                  "secondary": "#5856d6",
                                  "success": "#4cd964",
                                  "warning": "#ffcc00",
                                },
                              },
                              "primary": "#2089dc",
                              "searchBg": "#303337",
                              "secondary": "#ca71eb",
                              "success": "#52c41a",
                              "warning": "#faad14",
                              "white": "#ffffff",
                            },
                          }
                        }
                      >
                        <Text
                          style={
                            Object {
                              "alignContent": "center",
                              "alignItems": "center",
                              "alignSelf": "center",
                              "backgroundColor": "transparent",
                              "color": "#B8C1CA",
                              "fontSize": 18,
                              "justifyContent": "center",
                              "paddingVertical": 4,
                            }
                          }
                          testID="listItemTitle"
                        >
                          Cancel
                        </Text>
                      </View>
                    </View>
                  </View>
                </View>
              </View>
            </View>
          </View>
        </Modal>
      </View>
    </View>
  </RCTSafeAreaView>
</View>
`;
