// Jest Snapshot v1, https://goo.gl/fbAQLP

exports[`LoginForm component should renders correctly 1`] = `
<View
  style={
    Object {
      "flex": 1,
    }
  }
>
  <View
    style={
      Array [
        Object {
          "paddingHorizontal": 16,
        },
        Object {
          "paddingTop": 10,
        },
        Object {
          "backgroundColor": "#1A2025",
        },
        Object {
          "borderTopWidth": 1,
        },
        null,
        Object {
          "borderColor": "#414C57",
        },
        undefined,
      ]
    }
  >
    <View
      style={
        Object {
          "paddingBottom": 10,
          "paddingTop": 5,
        }
      }
    >
      <View>
        <View
          style={
            Object {
              "alignItems": "stretch",
              "flexDirection": "row",
            }
          }
        >
          <Text
            style={
              Array [
                Object {
                  "color": "#FFFFFF",
                },
                Object {
                  "fontFamily": "Roboto",
                },
                Array [
                  Object {
                    "fontFamily": "Roboto",
                    "fontSize": 16,
                    "fontWeight": "400",
                    "marginBottom": 0,
                  },
                  Object {
                    "color": "#B8C1CA",
                  },
                  Array [
                    Object {
                      "color": "#B8C1CA",
                    },
                    Object {
                      "fontSize": 16,
                    },
                    Object {
                      "paddingLeft": 1,
                    },
                    undefined,
                  ],
                ],
              ]
            }
          >
            Username
          </Text>
        </View>
      </View>
      <TextInput
        autoCapitalize="none"
        autoComplete="username"
        autoFocus={true}
        keyboardAppearance="dark"
        labelStyle={
          Array [
            Object {
              "color": "#B8C1CA",
            },
            Object {
              "fontSize": 16,
            },
            Object {
              "paddingLeft": 1,
            },
            undefined,
          ]
        }
        onChangeText={[Function]}
        placeholder=""
        placeholderTextColor="#444"
        returnKeyType="done"
        style={
          Array [
            Object {
              "backgroundColor": "transparent",
              "borderColor": "#414C57",
              "borderRadius": 2,
              "borderWidth": 1,
              "color": "#FFFFFF",
              "fontFamily": "Roboto",
              "fontSize": 16,
              "lineHeight": 21,
            },
            Array [
              Object {
                "borderWidth": 0,
                "marginBottom": 7,
                "paddingHorizontal": 0,
                "paddingVertical": 8,
              },
              Object {
                "paddingLeft": 1,
              },
              Object {
                "fontSize": 18,
              },
              Object {
                "color": "#FFFFFF",
              },
              undefined,
            ],
          ]
        }
        testID="usernameInput"
        textContentType="username"
        underlineColorAndroid="transparent"
        value=""
      />
    </View>
  </View>
  <View
    style={
      Object {
        "marginBottom": 16,
      }
    }
  >
    <View
      style={
        Array [
          Object {
            "paddingHorizontal": 16,
          },
          Object {
            "paddingTop": 10,
          },
          Object {
            "backgroundColor": "#1A2025",
          },
          Object {
            "borderTopWidth": 1,
          },
          Object {
            "borderBottomWidth": 1,
          },
          Object {
            "borderColor": "#414C57",
          },
          undefined,
        ]
      }
    >
      <View
        style={
          Object {
            "paddingBottom": 10,
            "paddingTop": 5,
          }
        }
      >
        <View>
          <View
            style={
              Object {
                "alignItems": "stretch",
                "flexDirection": "row",
              }
            }
          >
            <Text
              style={
                Array [
                  Object {
                    "color": "#FFFFFF",
                  },
                  Object {
                    "fontFamily": "Roboto",
                  },
                  Array [
                    Object {
                      "fontFamily": "Roboto",
                      "fontSize": 16,
                      "fontWeight": "400",
                      "marginBottom": 0,
                    },
                    Object {
                      "color": "#B8C1CA",
                    },
                    Array [
                      Object {
                        "color": "#B8C1CA",
                      },
                      Object {
                        "fontSize": 16,
                      },
                      Object {
                        "paddingLeft": 1,
                      },
                      undefined,
                    ],
                  ],
                ]
              }
            >
              Password
            </Text>
          </View>
        </View>
        <TextInput
          autoCapitalize="none"
          autoComplete="password"
          keyboardAppearance="dark"
          labelStyle={
            Array [
              Object {
                "color": "#B8C1CA",
              },
              Object {
                "fontSize": 16,
              },
              Object {
                "paddingLeft": 1,
              },
              undefined,
            ]
          }
          onChangeText={[Function]}
          placeholder=""
          placeholderTextColor="#444"
          returnKeyType="done"
          secureTextEntry={true}
          style={
            Array [
              Object {
                "backgroundColor": "transparent",
                "borderColor": "#414C57",
                "borderRadius": 2,
                "borderWidth": 1,
                "color": "#FFFFFF",
                "fontFamily": "Roboto",
                "fontSize": 16,
                "lineHeight": 21,
              },
              Array [
                Object {
                  "borderWidth": 0,
                  "marginBottom": 7,
                  "paddingHorizontal": 0,
                  "paddingVertical": 8,
                },
                Object {
                  "paddingLeft": 1,
                },
                Object {
                  "fontSize": 18,
                },
                Object {
                  "color": "#FFFFFF",
                },
                undefined,
              ],
            ]
          }
          testID="userPasswordInput"
          textContentType="password"
          underlineColorAndroid="transparent"
          value=""
        />
      </View>
    </View>
    <Text
      allowFontScaling={false}
      onPress={[Function]}
      style={
        Array [
          Object {
            "color": undefined,
            "fontSize": 25,
          },
          Array [
            Object {
              "position": "absolute",
              "right": 12,
              "top": 30,
            },
            Object {
              "color": "#B8C1CA",
            },
          ],
          Object {
            "fontFamily": "Ionicons",
            "fontStyle": "normal",
            "fontWeight": "normal",
          },
          Object {},
        ]
      }
    >
      
    </Text>
  </View>
  <View
    style={
      Object {
        "marginHorizontal": 20,
        "marginTop": 16,
      }
    }
  >
    <View
      accessible={true}
      collapsable={false}
      focusable={true}
      onBlur={[Function]}
      onClick={[Function]}
      onFocus={[Function]}
      onResponderGrant={[Function]}
      onResponderMove={[Function]}
      onResponderRelease={[Function]}
      onResponderTerminate={[Function]}
      onResponderTerminationRequest={[Function]}
      onStartShouldSetResponder={[Function]}
      style={
        Object {
          "alignSelf": "stretch",
        }
      }
      testID="loginButton"
    >
      <View
        style={
          Array [
            Object {
              "alignItems": "center",
              "backgroundColor": "transparent",
              "borderRadius": 100,
              "flexDirection": "column",
              "justifyContent": "center",
              "overflow": "hidden",
            },
            Object {
              "backgroundColor": "transparent",
            },
            Object {
              "minHeight": 44,
              "paddingHorizontal": 24,
              "paddingVertical": 4,
            },
            undefined,
            undefined,
            false,
          ]
        }
      >
        <View
          style={
            Object {
              "alignItems": "center",
              "borderColor": "#1B85D6",
              "borderRadius": 100,
              "borderWidth": 1,
              "bottom": 0,
              "justifyContent": "center",
              "left": 0,
              "position": "absolute",
              "right": 0,
              "top": 0,
            }
          }
        >
          <View
            collapsable={false}
            nativeID="animatedComponent"
            style={
              Object {
                "transform": Array [
                  Object {
                    "scale": 0,
                  },
                ],
              }
            }
          >
            <ActivityIndicator
              color="#FFFFFF"
              size="small"
            />
          </View>
        </View>
        <View
          collapsable={false}
          nativeID="animatedComponent"
          style={
            Object {
              "backgroundColor": "rgba(0, 0, 0, 0.05)",
              "bottom": 0,
              "left": 0,
              "opacity": 0,
              "position": "absolute",
              "right": 0,
              "top": 0,
            }
          }
        />
        <View
          collapsable={false}
          nativeID="animatedComponent"
          style={
            Object {
              "transform": Array [
                Object {
                  "scale": 1,
                },
              ],
            }
          }
        >
          <Text
            numberOfLines={1}
            style={
              Array [
                Object {
                  "color": "#FFFFFF",
                },
                Object {
                  "fontFamily": "Roboto-Medium",
                },
                Object {
                  "fontSize": 18,
                  "lineHeight": 24,
                },
                Object {
                  "textAlign": "left",
                },
              ]
            }
          >
            Login
          </Text>
        </View>
      </View>
    </View>
  </View>
  <View
    style={
      Object {
        "alignItems": "center",
        "flexDirection": "row",
        "justifyContent": "center",
        "marginTop": 20,
      }
    }
  >
    <Text
      accessible={true}
      focusable={true}
      hitSlop={
        Object {
          "bottom": 4,
          "left": 4,
          "right": 4,
          "top": 4,
        }
      }
      onClick={[Function]}
      onResponderGrant={[Function]}
      onResponderMove={[Function]}
      onResponderRelease={[Function]}
      onResponderTerminate={[Function]}
      onResponderTerminationRequest={[Function]}
      onStartShouldSetResponder={[Function]}
      style={
        Array [
          Object {
            "color": "#FFFFFF",
          },
          Object {
            "fontFamily": "Roboto",
          },
          Object {
            "fontSize": 12,
            "lineHeight": 16,
          },
          Object {
            "textAlign": "left",
          },
        ]
      }
    >
      Forgot your password?
    </Text>
  </View>
  <Modal
    animationType="none"
    deviceHeight={null}
    deviceWidth={null}
    hardwareAccelerated={false}
    hideModalContentWhileAnimating={false}
    onBackdropPress={[Function]}
    onModalHide={[Function]}
    onModalWillHide={[Function]}
    onModalWillShow={[Function]}
    onRequestClose={[Function]}
    onSwipeComplete={[Function]}
    panResponderThreshold={4}
    scrollHorizontal={false}
    scrollOffset={0}
    scrollOffsetMax={0}
    scrollTo={null}
    supportedOrientations={
      Array [
        "portrait",
        "landscape",
      ]
    }
    swipeDirection="down"
    swipeThreshold={100}
    transparent={true}
    visible={false}
  >
    <View
      accessible={true}
      collapsable={false}
      focusable={true}
      forwardedRef={[Function]}
      nativeID="animatedComponent"
      onClick={[Function]}
      onResponderGrant={[Function]}
      onResponderMove={[Function]}
      onResponderRelease={[Function]}
      onResponderTerminate={[Function]}
      onResponderTerminationRequest={[Function]}
      onStartShouldSetResponder={[Function]}
      style={
        Object {
          "backgroundColor": "black",
          "bottom": 0,
          "height": 1334,
          "left": 0,
          "opacity": 0,
          "position": "absolute",
          "right": 0,
          "top": 0,
          "width": 750,
        }
      }
    />
    <View
      onLayout={[Function]}
      pointerEvents="box-none"
      style={
        Array [
          Array [
            Object {
              "margin": 37.5,
              "transform": Array [
                Object {
                  "translateY": 0,
                },
              ],
            },
            Object {
              "flex": 1,
              "justifyContent": "center",
            },
            Array [
              Object {
                "justifyContent": "flex-end",
              },
              Object {
                "margin": 1,
              },
            ],
            Object {
              "margin": 0,
            },
          ],
          Object {
            "paddingBottom": 0,
          },
        ]
      }
    >
      <View
        collapsable={false}
        deviceHeight={null}
        deviceWidth={null}
        forwardedRef={[Function]}
        hideModalContentWhileAnimating={false}
        nativeID="animatedComponent"
        onBackdropPress={[Function]}
        onModalHide={[Function]}
        onModalWillHide={[Function]}
        onModalWillShow={[Function]}
        onMoveShouldSetResponder={[Function]}
        onMoveShouldSetResponderCapture={[Function]}
        onResponderEnd={[Function]}
        onResponderGrant={[Function]}
        onResponderMove={[Function]}
        onResponderReject={[Function]}
        onResponderRelease={[Function]}
        onResponderStart={[Function]}
        onResponderTerminate={[Function]}
        onResponderTerminationRequest={[Function]}
        onStartShouldSetResponder={[Function]}
        onStartShouldSetResponderCapture={[Function]}
        onSwipeComplete={[Function]}
        panResponderThreshold={4}
        pointerEvents="box-none"
        scrollHorizontal={false}
        scrollOffset={0}
        scrollOffsetMax={0}
        scrollTo={null}
        style={
          Object {
            "flex": 1,
            "justifyContent": "flex-end",
            "left": 0,
            "margin": 1,
            "top": 0,
            "transform": Array [
              Object {
                "translateY": 0,
              },
            ],
          }
        }
        supportedOrientations={
          Array [
            "portrait",
            "landscape",
          ]
        }
        swipeDirection="down"
        swipeThreshold={100}
      >
        <View
          style={
            Array [
              Array [
                Object {
                  "backgroundColor": "#1F252C",
                },
                Object {
                  "paddingBottom": 8,
                },
                Object {
                  "borderTopLeftRadius": 15,
                  "borderTopRightRadius": 15,
                  "overflow": "hidden",
                },
              ],
              undefined,
            ]
          }
        >
          <Text
            style={
              Array [
                Object {
                  "color": "#FFFFFF",
                },
                Object {
                  "fontFamily": "Roboto",
                },
                Array [
                  Object {
                    "color": "#FFFFFF",
                  },
                  Object {
                    "marginTop": 20,
                  },
                  Object {
                    "marginBottom": 16,
                  },
                  Object {
                    "fontFamily": "Roboto-Black",
                    "fontWeight": "700",
                  },
                  Object {
                    "fontSize": 22,
                  },
                  Object {
                    "textAlign": "center",
                  },
                ],
              ]
            }
          >
            Reset Password
          </Text>
          <Text
            allowFontScaling={false}
            onPress={[Function]}
            style={
              Array [
                Object {
                  "color": undefined,
                  "fontSize": 34,
                },
                Array [
                  Object {
                    "color": "#FFFFFF",
                  },
                  Object {
                    "position": "absolute",
                    "right": 10,
                    "top": 24,
                  },
                ],
                Object {
                  "fontFamily": "Material Design Icons",
                  "fontStyle": "normal",
                  "fontWeight": "normal",
                },
                Object {},
              ]
            }
          >
            󰅖
          </Text>
          <View>
            <Text
              style={
                Array [
                  Object {
                    "color": "#FFFFFF",
                  },
                  Object {
                    "fontFamily": "Roboto",
                  },
                  Array [
                    Object {
                      "fontFamily": "Roboto-Medium",
                      "fontWeight": "500",
                    },
                    Object {
                      "fontSize": 16,
                    },
                    Object {
                      "borderTopWidth": 0.5,
                    },
                    Object {
                      "textAlign": "center",
                    },
                    Object {
                      "paddingVertical": 24,
                    },
                    Object {
                      "paddingHorizontal": 16,
                    },
                    Object {
                      "borderColor": "#414C57",
                    },
                    Object {
                      "color": "#B8C1CA",
                    },
                  ],
                ]
              }
            >
              Enter your channel name below to start the password recovery process.
            </Text>
            <View
              style={
                Array [
                  Object {
                    "paddingHorizontal": 16,
                  },
                  Object {
                    "paddingTop": 10,
                  },
                  Object {
                    "backgroundColor": "#1A2025",
                  },
                  Object {
                    "borderTopWidth": 1,
                  },
                  Object {
                    "borderBottomWidth": 1,
                  },
                  Object {
                    "borderColor": "#414C57",
                  },
                  Array [
                    Object {
                      "backgroundColor": "#1E242A",
                    },
                    Object {
                      "borderColor": "#414C57",
                    },
                  ],
                ]
              }
            >
              <View
                style={
                  Object {
                    "paddingBottom": 10,
                    "paddingTop": 5,
                  }
                }
              >
                <View>
                  <View
                    style={
                      Object {
                        "alignItems": "stretch",
                        "flexDirection": "row",
                      }
                    }
                  >
                    <Text
                      style={
                        Array [
                          Object {
                            "color": "#FFFFFF",
                          },
                          Object {
                            "fontFamily": "Roboto",
                          },
                          Array [
                            Object {
                              "fontFamily": "Roboto",
                              "fontSize": 16,
                              "fontWeight": "400",
                              "marginBottom": 0,
                            },
                            Object {
                              "color": "#B8C1CA",
                            },
                            Array [
                              Object {
                                "color": "#B8C1CA",
                              },
                            ],
                          ],
                        ]
                      }
                    >
                      Username
                    </Text>
                  </View>
                </View>
                <TextInput
                  autoCapitalize="none"
                  autoComplete="username"
                  containerStyle={
                    Array [
                      Object {
                        "backgroundColor": "#1E242A",
                      },
                      Object {
                        "borderColor": "#414C57",
                      },
                    ]
                  }
                  keyboardAppearance="dark"
                  labelStyle={
                    Array [
                      Object {
                        "color": "#B8C1CA",
                      },
                    ]
                  }
                  onChangeText={[Function]}
                  placeholder=""
                  placeholderTextColor="#444"
                  returnKeyType="done"
                  style={
                    Array [
                      Object {
                        "backgroundColor": "transparent",
                        "borderColor": "#414C57",
                        "borderRadius": 2,
                        "borderWidth": 1,
                        "color": "#FFFFFF",
                        "fontFamily": "Roboto",
                        "fontSize": 16,
                        "lineHeight": 21,
                      },
                      Array [
                        Object {
                          "borderWidth": 0,
                          "marginBottom": 7,
                          "paddingHorizontal": 0,
                          "paddingVertical": 8,
                        },
                        Object {
                          "paddingLeft": 1,
                        },
                        Object {
                          "fontSize": 18,
                        },
                        Object {
                          "color": "#FFFFFF",
                        },
                        Array [
                          Object {
                            "color": "#FFFFFF",
                          },
                        ],
                      ],
                    ]
                  }
                  textContentType="username"
                  underlineColorAndroid="transparent"
                  value=""
                />
              </View>
            </View>
            <View
              onPress={[Function]}
              style={
                Array [
                  Object {
                    "flexDirection": "row",
                    "justifyContent": "center",
                  },
                  Object {},
                  Object {
                    "backgroundColor": "#1F252C",
                    "borderColor": "#1B85D6",
                    "borderRadius": 21,
                    "borderWidth": 1,
                    "paddingHorizontal": 21,
                    "paddingVertical": 10,
                  },
                  Array [
                    Object {
                      "margin": 24,
                    },
                    Object {
                      "backgroundColor": "#1F252C",
                    },
                  ],
                ]
              }
              text="Continue"
            >
              <Text
                onLayout={[Function]}
                style={
                  Array [
                    Object {
                      "color": "#FFFFFF",
                    },
                    Object {
                      "fontFamily": "Roboto",
                    },
                    Array [
                      Object {
                        "fontSize": 17,
                      },
                      Object {
                        "color": "#FFFFFF",
                      },
                      undefined,
                      Object {
                        "fontWeight": "500",
                      },
                    ],
                  ]
                }
              >
                 
                Continue
                 
              </Text>
            </View>
          </View>
        </View>
      </View>
    </View>
  </Modal>
</View>
`;
